5 Isaiah R. – An Analysis of the 2024 Mexican Presidential Election
…
violent_crimes_18_23|>
  filter(year == 2023)|>
  left_join(population_20, 
            join_by(state == state))|>
  mutate(
    crime_rate = (tot_viol_crime/pop) * (100000)
  )

# A tibble: 32 × 8
# Groups:   state [32]
   state    year.x id_state.x tot_viol_crime id_state.y year.y    pop crime_rate
   <chr>     <dbl>      <dbl>          <dbl>      <dbl>  <dbl>  <dbl>      <dbl>
 1 Aguasca…   2023          1          33024          1   2020 1.43e6      2316.
 2 Baja Ca…   2023          2          95094          2   2020 3.77e6      2523.
 3 Baja Ca…   2023          3          16728          3   2020 7.98e5      2095.
 4 Campeche   2023          4          22754          4   2020 9.28e5      2451.
 5 Chiapas    2023          7          11972          7   2020 5.54e6       216.
 6 Chihuah…   2023          8          49514          8   2020 3.74e6      1323.
 7 Coahuila   2023          5          25042          5   2020 3.15e6       796.
 8 Colima     2023          6          17482          6   2020 7.31e5      2390.
 9 Distrit…   2023          9         175038          9   2020 9.21e6      1901.
10 Durango    2023         10          15170         10   2020 1.83e6       828.
# ℹ 22 more rows
…
