An Analysis of the 2024 Mexican Presidential Election
…
#explaining indigenous graphs

indigenous_pop_24 |>
  arrange(pct_ind)

# A tibble: 32 × 4
   id_state state            pop_ind pct_ind
   <chr>    <chr>              <dbl>   <dbl>
 1 05       Coahuila           63417  0.0213
 2 32       Zacatecas          74582  0.0488
 3 01       Aguascalientes     83200  0.0617
 4 11       Guanajuato        372169  0.0639
 5 19       Nuevo León        352790  0.0640
 6 28       Tamaulipas        224210  0.0667
 7 14       Jalisco           557864  0.0704
 8 02       Baja California   285679  0.0797
 9 10       Durango           152793  0.0887
10 09       Distrito Federal  825325  0.0928
# ℹ 22 more rows
…
